%YAML 1.1
%TAG !u! tag:unity3d.com,2011:
--- !u!114 &11400000
MonoBehaviour:
  m_ObjectHideFlags: 0
  m_CorrespondingSourceObject: {fileID: 0}
  m_PrefabInstance: {fileID: 0}
  m_PrefabAsset: {fileID: 0}
  m_GameObject: {fileID: 0}
  m_Enabled: 1
  m_EditorHideFlags: 0
  m_Script: {fileID: 11500000, guid: 95e66c6366d904e98bc83428217d4fd7, type: 3}
  m_Name: Input_BasicSprint
  m_EditorClassIdentifier:
  _data:
    _json: '{"graph":{"variables":{"collection":{"$content":[],"$version":"A"},"$version":"A"},"controlInputDefinitions":[],"controlOutputDefinitions":[],"valueInputDefinitions":[],"valueOutputDefinitions":[],"title":null,"summary":null,"pan":{"x":291.9382,"y":580.9004},"zoom":0.7,"elements":[{"chainable":false,"member":{"name":"SetFloat","parameterTypes":["System.String","System.Single"],"targetType":"UnityEngine.Animator","targetTypeName":"UnityEngine.Animator","$version":"A"},"defaultValues":{"target":null,"%name":{"$content":"X","$type":"System.String"},"%value":{"$content":0.0,"$type":"System.Single"}},"position":{"x":70.0,"y":73.0},"guid":"c0d9deaf-bf21-40ab-948d-5c2869051477","$version":"A","$type":"Bolt.InvokeMember","$id":"9"},{"chainable":false,"member":{"name":"SetFloat","parameterTypes":["System.String","System.Single"],"targetType":"UnityEngine.Animator","targetTypeName":"UnityEngine.Animator","$version":"A"},"defaultValues":{"target":null,"%name":{"$content":"X","$type":"System.String"},"%value":{"$content":0.0,"$type":"System.Single"}},"position":{"x":1361.0,"y":545.0},"guid":"4993ea84-dcaf-4c3d-b880-cd72dc35ba15","$version":"A","$type":"Bolt.InvokeMember","$id":"12"},{"coroutine":false,"defaultValues":{"buttonName":{"$content":"Fire3","$type":"System.String"},"action":{"$content":"Hold","$type":"Ludiq.PressState"}},"position":{"x":-163.0,"y":417.0},"guid":"aa2e8630-f9d3-459c-9850-e7e3006000d7","$version":"A","$type":"Bolt.OnButtonInput","$id":"15"},{"chainable":false,"member":{"name":"SetFloat","parameterTypes":["System.String","System.Single"],"targetType":"UnityEngine.Animator","targetTypeName":"UnityEngine.Animator","$version":"A"},"defaultValues":{"target":null,"%name":{"$content":"Z","$type":"System.String"},"%value":{"$content":0.0,"$type":"System.Single"}},"position":{"x":1535.0,"y":546.0},"guid":"70d27091-8b5f-4836-adb9-04deb7e61249","$version":"A","$type":"Bolt.InvokeMember","$id":"17"},{"defaultValues":{},"position":{"x":900.0,"y":822.0},"guid":"52709a19-cf5d-4830-8d8b-a98b3b80fc5b","$version":"A","$type":"Bolt.Negate","$id":"20"},{"chainable":false,"member":{"name":"Equals","parameterTypes":["System.Single"],"targetType":"System.Single","targetTypeName":"System.Single","$version":"A"},"defaultValues":{"target":{"$content":0.0,"$type":"System.Single"},"%obj":{"$content":0.0,"$type":"System.Single"}},"position":{"x":706.0,"y":1125.0},"guid":"fc3c4ff6-7b11-4c18-92ed-c5e2e778229e","$version":"A","$type":"Bolt.InvokeMember","$id":"22"},{"chainable":false,"member":{"name":"SetFloat","parameterTypes":["System.String","System.Single"],"targetType":"UnityEngine.Animator","targetTypeName":"UnityEngine.Animator","$version":"A"},"defaultValues":{"target":null,"%name":{"$content":"Z","$type":"System.String"},"%value":{"$content":0.0,"$type":"System.Single"}},"position":{"x":269.0,"y":112.0},"guid":"f2845622-3aa1-483b-b83d-4c4e280a3082","$version":"A","$type":"Bolt.InvokeMember","$id":"25"},{"type":"System.Single","value":{"$content":2.0,"$type":"System.Single"},"defaultValues":{},"position":{"x":355.0,"y":589.0},"guid":"0e8a18e2-5bca-4d5b-af20-e7ef3b9b5248","$version":"A","$type":"Bolt.Literal","$id":"28"},{"chainable":false,"member":{"name":"GetAxis","parameterTypes":["System.String"],"targetType":"UnityEngine.Input","targetTypeName":"UnityEngine.Input","$version":"A"},"defaultValues":{"%axisName":{"$content":"Horizontal","$type":"System.String"}},"position":{"x":-440.0,"y":111.0},"guid":"c20826d5-d961-47ae-8392-97dababb5f61","$version":"A","$type":"Bolt.InvokeMember","$id":"30"},{"coroutine":false,"defaultValues":{},"position":{"x":-207.0,"y":36.0},"guid":"a535e211-9571-4bad-a2bf-6c94639e86aa","$version":"A","$type":"Bolt.Update","$id":"33"},{"chainable":false,"member":{"name":"GetAxis","parameterTypes":["System.String"],"targetType":"UnityEngine.Input","targetTypeName":"UnityEngine.Input","$version":"A"},"defaultValues":{"%axisName":{"$content":"Vertical","$type":"System.String"}},"position":{"x":-439.0,"y":244.0},"guid":"e637f5e6-f747-44ad-b2e7-fb9465955e04","$version":"A","$type":"Bolt.InvokeMember","$id":"35"},{"chainable":false,"member":{"name":"SetBool","parameterTypes":["System.String","System.Boolean"],"targetType":"UnityEngine.Animator","targetTypeName":"UnityEngine.Animator","$version":"A"},"defaultValues":{"target":null,"%name":{"$content":"Strafe","$type":"System.String"},"%value":{"$content":true,"$type":"System.Boolean"}},"position":{"x":972.0,"y":585.0},"guid":"04ef56b5-8431-45e9-b5ec-147a12b15ff2","$version":"A","$type":"Bolt.InvokeMember","$id":"38"},{"kind":"Object","defaultValues":{"name":{"$content":"Speed","$type":"System.String"},"object":null},"position":{"x":631.0,"y":413.0},"guid":"f3857861-5d85-432f-89e7-eeabcb9003e3","$version":"A","$type":"Bolt.SetVariable","$id":"41"},{"chainable":false,"member":{"name":"SetBool","parameterTypes":["System.String","System.Boolean"],"targetType":"UnityEngine.Animator","targetTypeName":"UnityEngine.Animator","$version":"A"},"defaultValues":{"target":null,"%name":{"$content":"Sprint","$type":"System.String"},"%value":{"$content":false,"$type":"System.Boolean"}},"position":{"x":184.0,"y":657.0},"guid":"334391b3-57b8-44f9-b9a6-723d15aae3c3","$version":"A","$type":"Bolt.InvokeMember","$id":"43"},{"kind":"Object","defaultValues":{"name":{"$content":"Speed","$type":"System.String"},"object":null},"position":{"x":552.0,"y":655.0},"guid":"4c743fd5-e40a-4fa8-8cb3-c6a55cef70f9","$version":"A","$type":"Bolt.SetVariable","$id":"46"},{"type":"System.Single","value":{"$content":1.0,"$type":"System.Single"},"defaultValues":{},"position":{"x":118.0,"y":974.0},"guid":"52ce57c2-497e-4c51-88c0-8d2ce93381e5","$version":"A","$type":"Bolt.Literal","$id":"48"},{"chainable":false,"member":{"name":"SetBool","parameterTypes":["System.String","System.Boolean"],"targetType":"UnityEngine.Animator","targetTypeName":"UnityEngine.Animator","$version":"A"},"defaultValues":{"target":null,"%name":{"$content":"Sprint","$type":"System.String"},"%value":{"$content":true,"$type":"System.Boolean"}},"position":{"x":341.0,"y":414.0},"guid":"2791f91d-cd07-429c-8f45-b04af2b2346f","$version":"A","$type":"Bolt.InvokeMember","$id":"50"},{"defaultValues":{"b":{"$content":2.0,"$type":"System.Single"}},"position":{"x":679.0,"y":863.0},"guid":"568864b2-5dfb-4bc8-9915-9b2d7c5a832d","$version":"A","$type":"Bolt.ScalarMultiply","$id":"53"},{"chainable":false,"member":{"name":"SetBool","parameterTypes":["System.String","System.Boolean"],"targetType":"UnityEngine.Animator","targetTypeName":"UnityEngine.Animator","$version":"A"},"defaultValues":{"target":null,"%name":{"$content":"Move","$type":"System.String"},"%value":{"$content":true,"$type":"System.Boolean"}},"position":{"x":1154.0,"y":586.0},"guid":"792a4f12-6c11-44f1-b679-47914ccabd4e","$version":"A","$type":"Bolt.InvokeMember","$id":"55"},{"defaultValues":{"a":{"$content":2.0,"$type":"System.Single"},"b":{"$content":1.0,"$type":"System.Single"},"t":{"$content":0.0,"$type":"System.Single"}},"position":{"x":407.0,"y":803.0},"guid":"8e7851ba-88de-4b08-9d6f-3d1f76426f38","$version":"A","$type":"Bolt.ScalarLerp","$id":"58"},{"specifyFallback":false,"kind":"Object","defaultValues":{"name":{"$content":"Speed","$type":"System.String"},"object":null},"position":{"x":136.0,"y":1094.0},"guid":"76f8c8ee-175d-447e-9535-8819ab929b11","$version":"A","$type":"Bolt.GetVariable","$id":"60"},{"defaultValues":{},"position":{"x":1017.0,"y":954.0},"guid":"6733dddf-0f92-49ad-92fc-d55fd80f1faa","$version":"A","$type":"Bolt.Negate","$id":"62"},{"chainable":false,"member":{"name":"Equals","parameterTypes":["System.Single"],"targetType":"System.Single","targetTypeName":"System.Single","$version":"A"},"defaultValues":{"target":{"$content":0.0,"$type":"System.Single"},"%obj":{"$content":0.0,"$type":"System.Single"}},"position":{"x":863.0,"y":1264.0},"guid":"1b638f5a-86e1-41d0-ace9-c72c8ce126ff","$version":"A","$type":"Bolt.InvokeMember","$id":"64"},{"member":{"name":"deltaTime","parameterTypes":null,"targetType":"UnityEngine.Time","targetTypeName":"UnityEngine.Time","$version":"A"},"defaultValues":{},"position":{"x":-41.0,"y":826.0},"guid":"c39a2bfd-4d6c-49da-9c39-6d20c37be323","$version":"A","$type":"Bolt.GetMember","$id":"67"},{"defaultValues":{"b":{"$content":2.0,"$type":"System.Single"}},"position":{"x":681.0,"y":979.0},"guid":"82a881d1-d188-4b36-99d2-7a7ed46d21a6","$version":"A","$type":"Bolt.ScalarMultiply","$id":"70"},{"coroutine":false,"defaultValues":{"buttonName":{"$content":"Fire3","$type":"System.String"},"action":{"$content":"Up","$type":"Ludiq.PressState"}},"position":{"x":-165.0,"y":661.0},"guid":"6cdded08-b979-41c7-9e0c-7b1bebe6ea48","$version":"A","$type":"Bolt.OnButtonInput","$id":"72"},{"sourceUnit":{"$ref":"9"},"sourceKey":"exit","destinationUnit":{"$ref":"25"},"destinationKey":"enter","guid":"9fef578e-9f8e-4473-bbca-ba9ff7fd28a4","$type":"Bolt.ControlConnection"},{"sourceUnit":{"$ref":"33"},"sourceKey":"trigger","destinationUnit":{"$ref":"9"},"destinationKey":"enter","guid":"ec8603ba-96e1-457f-a6b7-0c7d0ddf141a","$type":"Bolt.ControlConnection"},{"sourceUnit":{"$ref":"38"},"sourceKey":"exit","destinationUnit":{"$ref":"55"},"destinationKey":"enter","guid":"42a64283-c234-4fbb-b2a1-623cac55ed94","$type":"Bolt.ControlConnection"},{"sourceUnit":{"$ref":"43"},"sourceKey":"exit","destinationUnit":{"$ref":"46"},"destinationKey":"assign","guid":"b17fce6f-343b-450b-a03d-eb6d160be37a","$type":"Bolt.ControlConnection"},{"sourceUnit":{"$ref":"50"},"sourceKey":"exit","destinationUnit":{"$ref":"41"},"destinationKey":"assign","guid":"98e9d699-d00a-4069-a2ca-8baf23f0d58d","$type":"Bolt.ControlConnection"},{"sourceUnit":{"$ref":"55"},"sourceKey":"exit","destinationUnit":{"$ref":"12"},"destinationKey":"enter","guid":"51470d32-34e7-4dc2-93a4-7b36d5e38a30","$type":"Bolt.ControlConnection"},{"sourceUnit":{"$ref":"46"},"sourceKey":"assigned","destinationUnit":{"$ref":"12"},"destinationKey":"enter","guid":"73adc14e-a3f2-4acb-b48c-6ca830fbbcc4","$type":"Bolt.ControlConnection"},{"sourceUnit":{"$ref":"41"},"sourceKey":"assigned","destinationUnit":{"$ref":"12"},"destinationKey":"enter","guid":"b5f73bc2-b61c-4328-9836-9aded91501e9","$type":"Bolt.ControlConnection"},{"sourceUnit":{"$ref":"15"},"sourceKey":"trigger","destinationUnit":{"$ref":"50"},"destinationKey":"enter","guid":"c74fb833-593e-4a12-9a7d-0fd97ede54e1","$type":"Bolt.ControlConnection"},{"sourceUnit":{"$ref":"12"},"sourceKey":"exit","destinationUnit":{"$ref":"17"},"destinationKey":"enter","guid":"e8cf1760-5dcd-4f2b-85cb-a5960a8397c9","$type":"Bolt.ControlConnection"},{"sourceUnit":{"$ref":"72"},"sourceKey":"trigger","destinationUnit":{"$ref":"43"},"destinationKey":"enter","guid":"c0aee364-e026-4253-891a-7cc9db3bef15","$type":"Bolt.ControlConnection"},{"sourceUnit":{"$ref":"70"},"sourceKey":"product","destinationUnit":{"$ref":"17"},"destinationKey":"%value","guid":"04ad4047-7633-4568-928c-acbe53242402","$type":"Bolt.ValueConnection"},{"sourceUnit":{"$ref":"35"},"sourceKey":"result","destinationUnit":{"$ref":"25"},"destinationKey":"%value","guid":"758b4e2e-4b31-488e-919c-e4f023709230","$type":"Bolt.ValueConnection"},{"sourceUnit":{"$ref":"53"},"sourceKey":"product","destinationUnit":{"$ref":"12"},"destinationKey":"%value","guid":"df652b6f-3860-43e4-973a-b2cab96be73f","$type":"Bolt.ValueConnection"},{"sourceUnit":{"$ref":"22"},"sourceKey":"result","destinationUnit":{"$ref":"20"},"destinationKey":"input","guid":"b208fd08-466b-4cda-b7d4-73976543e173","$type":"Bolt.ValueConnection"},{"sourceUnit":{"$ref":"20"},"sourceKey":"output","destinationUnit":{"$ref":"38"},"destinationKey":"%value","guid":"dfd2fb18-6ad4-496b-a232-229390c0d6c5","$type":"Bolt.ValueConnection"},{"sourceUnit":{"$ref":"67"},"sourceKey":"value","destinationUnit":{"$ref":"58"},"destinationKey":"t","guid":"1127c1ff-5d6b-465a-a3dd-2d8579937f92","$type":"Bolt.ValueConnection"},{"sourceUnit":{"$ref":"35"},"sourceKey":"result","destinationUnit":{"$ref":"70"},"destinationKey":"a","guid":"338d8d96-69bd-4b22-9cbe-140b2a1f73bb","$type":"Bolt.ValueConnection"},{"sourceUnit":{"$ref":"58"},"sourceKey":"interpolation","destinationUnit":{"$ref":"46"},"destinationKey":"input","guid":"66374c92-09ae-4baa-9cc3-6ed12cb5eb3f","$type":"Bolt.ValueConnection"},{"sourceUnit":{"$ref":"60"},"sourceKey":"value","destinationUnit":{"$ref":"58"},"destinationKey":"a","guid":"2a9cc483-ccc3-4596-8827-148a287c264a","$type":"Bolt.ValueConnection"},{"sourceUnit":{"$ref":"48"},"sourceKey":"output","destinationUnit":{"$ref":"58"},"destinationKey":"b","guid":"b519287f-149b-43ed-bd26-2f224b31e249","$type":"Bolt.ValueConnection"},{"sourceUnit":{"$ref":"30"},"sourceKey":"result","destinationUnit":{"$ref":"53"},"destinationKey":"a","guid":"6b6d5a7a-9ea6-4371-8696-faa9bdcc7d26","$type":"Bolt.ValueConnection"},{"sourceUnit":{"$ref":"60"},"sourceKey":"value","destinationUnit":{"$ref":"70"},"destinationKey":"b","guid":"aa9591bd-b6cf-4549-8d34-e8188808df0a","$type":"Bolt.ValueConnection"},{"sourceUnit":{"$ref":"64"},"sourceKey":"result","destinationUnit":{"$ref":"62"},"destinationKey":"input","guid":"84dc03b4-bcef-41ca-9de5-ae3b726984ea","$type":"Bolt.ValueConnection"},{"sourceUnit":{"$ref":"62"},"sourceKey":"output","destinationUnit":{"$ref":"55"},"destinationKey":"%value","guid":"c05ab62f-bbd2-4bb0-a6e9-f6520a2a6fba","$type":"Bolt.ValueConnection"},{"sourceUnit":{"$ref":"60"},"sourceKey":"value","destinationUnit":{"$ref":"53"},"destinationKey":"b","guid":"2671bea1-cb54-4c2c-b778-d9a7cbe96c4b","$type":"Bolt.ValueConnection"},{"sourceUnit":{"$ref":"30"},"sourceKey":"result","destinationUnit":{"$ref":"9"},"destinationKey":"%value","guid":"5a0cb6d6-6d55-459b-a983-ce205c1524a0","$type":"Bolt.ValueConnection"},{"sourceUnit":{"$ref":"30"},"sourceKey":"result","destinationUnit":{"$ref":"22"},"destinationKey":"%obj","guid":"4eab073c-cb49-4458-8e9e-13d9bb546643","$type":"Bolt.ValueConnection"},{"sourceUnit":{"$ref":"28"},"sourceKey":"output","destinationUnit":{"$ref":"41"},"destinationKey":"input","guid":"58b27e46-235e-4c88-a5fd-a33d4ddd979b","$type":"Bolt.ValueConnection"},{"sourceUnit":{"$ref":"35"},"sourceKey":"result","destinationUnit":{"$ref":"64"},"destinationKey":"%obj","guid":"14e04c58-e7df-409b-9e87-ea4b84c7664c","$type":"Bolt.ValueConnection"}],"$version":"A"}}'
    _objectReferences: []
