%YAML 1.1
%TAG !u! tag:unity3d.com,2011:
--- !u!114 &11400000
MonoBehaviour:
  m_ObjectHideFlags: 0
  m_CorrespondingSourceObject: {fileID: 0}
  m_PrefabInstance: {fileID: 0}
  m_PrefabAsset: {fileID: 0}
  m_GameObject: {fileID: 0}
  m_Enabled: 1
  m_EditorHideFlags: 0
  m_Script: {fileID: 11500000, guid: 95e66c6366d904e98bc83428217d4fd7, type: 3}
  m_Name: Input_NavCombat
  m_EditorClassIdentifier:
  _data:
    _json: '{"graph":{"variables":{"collection":{"$content":[],"$version":"A"},"$version":"A"},"controlInputDefinitions":[],"controlOutputDefinitions":[],"valueInputDefinitions":[],"valueOutputDefinitions":[],"title":null,"summary":null,"pan":{"x":1908.125,"y":-92.15027},"zoom":0.25,"elements":[{"coroutine":false,"defaultValues":{},"position":{"x":-519.0,"y":-1093.0},"guid":"06ee067f-53b0-4c30-a6fd-9a1bb76cffdb","$version":"A","$type":"Bolt.Start","$id":"9"},{"defaultValues":{},"position":{"x":-224.0,"y":-422.0},"guid":"2accb558-0864-4220-93ea-3c655dc32ef8","$version":"A","$type":"Bolt.Branch","$id":"11"},{"coroutine":false,"defaultValues":{},"position":{"x":453.0,"y":48.0},"guid":"02b0b48d-acbc-4893-bf35-082af7ab57fd","$version":"A","$type":"Bolt.Update","$id":"13"},{"defaultValues":{},"position":{"x":2198.0,"y":-755.0},"guid":"2fd7992f-1f7b-43d4-a9a4-1eef4a2c5f59","$version":"A","$type":"Bolt.Branch","$id":"15"},{"member":{"name":"mousePosition","parameterTypes":null,"targetType":"UnityEngine.Input","targetTypeName":"UnityEngine.Input","$version":"A"},"defaultValues":{},"position":{"x":-1040.0,"y":-191.0},"guid":"54809cef-02aa-4e8e-8e7b-39b9eaf25b3e","$version":"A","$type":"Bolt.GetMember","$id":"17"},{"specifyFallback":false,"kind":"Object","defaultValues":{"name":{"$content":"RunDistance","$type":"System.String"},"object":null},"position":{"x":1700.0,"y":-676.0},"guid":"79cb389a-f00f-4762-b599-631be8461c0a","$version":"A","$type":"Bolt.GetVariable","$id":"20"},{"chainable":false,"member":{"name":"Equals","parameterTypes":["System.Single"],"targetType":"System.Single","targetTypeName":"System.Single","$version":"A"},"defaultValues":{"target":{"$content":0.0,"$type":"System.Single"},"%obj":{"$content":0.0,"$type":"System.Single"}},"position":{"x":-1686.0,"y":-1148.0},"guid":"9707e22a-27dc-4242-bf5f-d85c04392585","$version":"A","$type":"Bolt.InvokeMember","$id":"22"},{"chainable":false,"member":{"name":"SetFloat","parameterTypes":["System.String","System.Single"],"targetType":"UnityEngine.Animator","targetTypeName":"UnityEngine.Animator","$version":"A"},"defaultValues":{"target":null,"%name":{"$content":"Forward","$type":"System.String"},"%value":{"$content":0.0,"$type":"System.Single"}},"position":{"x":2152.0,"y":342.0},"guid":"68e042d5-b7c6-4f2a-aa38-fe840ff1191d","$version":"A","$type":"Bolt.InvokeMember","$id":"25"},{"numeric":true,"defaultValues":{"b":{"$content":0.0,"$type":"System.Single"}},"position":{"x":2569.0,"y":-383.0},"guid":"a9bd346a-3140-460e-8301-d347b2ab9745","$version":"A","$type":"Bolt.LessOrEqual","$id":"28"},{"chainable":false,"member":{"name":"ScreenPointToRay","parameterTypes":["UnityEngine.Vector3"],"targetType":"UnityEngine.Camera","targetTypeName":"UnityEngine.Camera","$version":"A"},"defaultValues":{"target":null,"%pos":{"x":0.0,"y":0.0,"z":0.0,"$type":"UnityEngine.Vector3"}},"position":{"x":-785.0,"y":-281.0},"guid":"11e960e0-a840-4ad7-8ddc-279314f5fd5a","$version":"A","$type":"Bolt.InvokeMember","$id":"30"},{"chainable":false,"member":{"name":"Magnitude","parameterTypes":["UnityEngine.Vector3"],"targetType":"UnityEngine.Vector3","targetTypeName":"UnityEngine.Vector3","$version":"A"},"defaultValues":{"%vector":{"x":0.0,"y":0.0,"z":0.0,"$type":"UnityEngine.Vector3"}},"position":{"x":1340.0,"y":219.0},"guid":"8252cc22-a11c-48c8-97a8-fee458047a19","$version":"A","$type":"Bolt.InvokeMember","$id":"33"},{"specifyFallback":false,"kind":"Object","defaultValues":{"name":{"$content":"RandomX","$type":"System.String"},"object":null},"position":{"x":699.0,"y":-1415.0},"guid":"dd87bfea-1a4e-4007-9ade-078bc2e92fb7","$version":"A","$type":"Bolt.GetVariable","$id":"36"},{"type":"System.Single","value":{"$content":2.0,"$type":"System.Single"},"defaultValues":{},"position":{"x":2324.0,"y":-919.0},"guid":"315ad068-5a67-451e-9824-e7aa4488d17f","$version":"A","$type":"Bolt.Literal","$id":"38"},{"defaultValues":{},"position":{"x":400.0,"y":-449.0},"guid":"6e613807-3c8d-4938-9fda-629d4b102fae","$version":"A","$type":"Bolt.Branch","$id":"40"},{"chainable":false,"member":{"name":"Range","parameterTypes":["System.Int32","System.Int32"],"targetType":"UnityEngine.Random","targetTypeName":"UnityEngine.Random","$version":"A"},"defaultValues":{"%minInclusive":{"$content":0,"$type":"System.Int32"},"%maxExclusive":{"$content":0,"$type":"System.Int32"}},"position":{"x":701.0,"y":-1244.0},"guid":"05f5272d-217b-400c-9eb5-afdda4660c6b","$version":"A","$type":"Bolt.InvokeMember","$id":"42"},{"member":{"name":"main","parameterTypes":null,"targetType":"UnityEngine.Camera","targetTypeName":"UnityEngine.Camera","$version":"A"},"defaultValues":{},"position":{"x":-976.0,"y":-300.0},"guid":"cb0ba51f-f602-4f5e-b820-38a056451fe2","$version":"A","$type":"Bolt.GetMember","$id":"45"},{"defaultValues":{"a":{"$content":0.0,"$type":"System.Single"},"b":{"$content":1.0,"$type":"System.Single"},"t":{"$content":1.0,"$type":"System.Single"}},"position":{"x":1006.0,"y":-1344.0},"guid":"7ea320a0-1a35-46cc-8a34-30a9fe8f7221","$version":"A","$type":"Bolt.ScalarLerp","$id":"48"},{"chainable":false,"member":{"name":"SetBool","parameterTypes":["System.String","System.Boolean"],"targetType":"UnityEngine.Animator","targetTypeName":"UnityEngine.Animator","$version":"A"},"defaultValues":{"target":null,"%name":{"$content":"Moving","$type":"System.String"},"%value":{"$content":false,"$type":"System.Boolean"}},"position":{"x":3400.0,"y":-437.0},"guid":"7bd770a4-aadb-4883-9308-7c0eff6f6309","$version":"A","$type":"Bolt.InvokeMember","$id":"50"},{"chainable":false,"member":{"name":"Range","parameterTypes":["System.Int32","System.Int32"],"targetType":"UnityEngine.Random","targetTypeName":"UnityEngine.Random","$version":"A"},"defaultValues":{"%minInclusive":{"$content":0,"$type":"System.Int32"},"%maxExclusive":{"$content":0,"$type":"System.Int32"}},"position":{"x":377.0,"y":-1229.0},"guid":"079f0003-4672-446c-a193-359e9a0484a6","$version":"A","$type":"Bolt.InvokeMember","$id":"53"},{"defaultValues":{},"position":{"x":2462.0,"y":-487.0},"guid":"ea078746-7016-4933-9e26-9d5127b1366f","$version":"A","$type":"Bolt.GenericMultiply","$id":"56"},{"defaultValues":{},"position":{"x":-512.0,"y":-981.0},"guid":"860db241-2087-43f9-bc83-0e110d22f55d","$version":"A","$type":"Bolt.Self","$id":"58"},{"defaultValues":{},"position":{"x":3015.0,"y":-612.0},"guid":"13843a17-2c4a-4d86-aee4-54d85b92d6bb","$version":"A","$type":"Bolt.Branch","$id":"60"},{"member":{"name":"deltaTime","parameterTypes":null,"targetType":"UnityEngine.Time","targetTypeName":"UnityEngine.Time","$version":"A"},"defaultValues":{},"position":{"x":625.0,"y":-1093.0},"guid":"2b8301c1-d0d3-4de3-b7f5-cba04e3ecdeb","$version":"A","$type":"Bolt.GetMember"},{"defaultValues":{},"position":{"x":-1275.0,"y":-1050.0},"guid":"59194ccb-0ced-4553-bc53-98952548b0e1","$version":"A","$type":"Bolt.Negate","$id":"65"},{"chainable":false,"member":{"name":"GetAxisRaw","parameterTypes":["System.String"],"targetType":"UnityEngine.Input","targetTypeName":"UnityEngine.Input","$version":"A"},"defaultValues":{"%axisName":{"$content":"Horizontal","$type":"System.String"}},"position":{"x":-1941.0,"y":-1275.0},"guid":"26998da4-2835-4479-a3f8-e1318e8eeec7","$version":"A","$type":"Bolt.InvokeMember","$id":"67"},{"defaultValues":{},"position":{"x":2455.0,"y":-752.0},"guid":"8291454c-5c50-433d-a0a7-31d974906a4b","$version":"A","$type":"Bolt.GenericMultiply","$id":"70"},{"defaultValues":{"a":{"$content":0.0,"$type":"System.Single"},"b":{"$content":1.0,"$type":"System.Single"},"t":{"$content":1.0,"$type":"System.Single"}},"position":{"x":3030.0,"y":-465.0},"guid":"029b9d10-597f-407c-a0b5-1aa02b54376d","$version":"A","$type":"Bolt.ScalarLerp","$id":"72"},{"member":{"name":"collider","parameterTypes":null,"targetType":"UnityEngine.RaycastHit","targetTypeName":"UnityEngine.RaycastHit","$version":"A"},"defaultValues":{},"position":{"x":3.0,"y":-353.0},"guid":"3889b884-18f9-4e18-823b-312bd7da6621","$version":"A","$type":"Bolt.GetMember","$id":"74"},{"numeric":true,"defaultValues":{"b":{"$content":0.0,"$type":"System.Single"}},"position":{"x":1966.0,"y":-728.0},"guid":"94df5424-1345-43ad-9778-1ceb0871dba1","$version":"A","$type":"Bolt.GreaterOrEqual","$id":"77"},{"member":{"name":"remainingDistance","parameterTypes":null,"targetType":"UnityEngine.AI.NavMeshAgent","targetTypeName":"UnityEngine.AI.NavMeshAgent","$version":"A"},"defaultValues":{"target":null},"position":{"x":1674.0,"y":-806.0},"guid":"52832146-b68b-459d-a474-8bb5f02282a6","$version":"A","$type":"Bolt.GetMember","$id":"79"},{"member":{"name":"speed","parameterTypes":null,"targetType":"UnityEngine.AI.NavMeshAgent","targetTypeName":"UnityEngine.AI.NavMeshAgent","$version":"A"},"defaultValues":{"target":null},"position":{"x":2094.0,"y":-534.0},"guid":"e1f92d4c-b94b-4eb5-bb9c-dab01b2d59b6","$version":"A","$type":"Bolt.GetMember","$id":"82"},{"chainable":false,"member":{"name":"speed","parameterTypes":null,"targetType":"UnityEngine.AI.NavMeshAgent","targetTypeName":"UnityEngine.AI.NavMeshAgent","$version":"A"},"defaultValues":{"target":null,"input":{"$content":0.0,"$type":"System.Single"}},"position":{"x":2779.0,"y":-811.0},"guid":"8430d052-6a6a-478e-9d0f-6ab321fbe313","$version":"A","$type":"Bolt.SetMember","$id":"85"},{"defaultValues":{},"position":{"x":1582.0,"y":465.0},"guid":"2e5ab410-69cd-4937-92ad-209c90a31ecb","$version":"A","$type":"Bolt.Vector3CrossProduct","$id":"88"},{"defaultValues":{"a":{"$content":0.0,"$type":"System.Single"},"b":{"$content":1.0,"$type":"System.Single"},"t":{"$content":0.05,"$type":"System.Single"}},"position":{"x":2626.0,"y":-606.0},"guid":"4dc35af2-c8f7-471f-b237-e65b5eaf0ecb","$version":"A","$type":"Bolt.ScalarLerp","$id":"90"},{"chainable":false,"member":{"name":"Raycast","parameterTypes":["UnityEngine.Ray","UnityEngine.RaycastHit&","System.Single","System.Int32"],"targetType":"UnityEngine.Physics","targetTypeName":"UnityEngine.Physics","$version":"A"},"defaultValues":{"%ray":{"origin":{"x":0.0,"y":0.0,"z":0.0},"direction":{"x":0.0,"y":0.0,"z":0.0},"$type":"UnityEngine.Ray"},"%maxDistance":{"$content":999.0,"$type":"System.Single"},"%layerMask":{"$content":0,"$type":"System.Int32"}},"position":{"x":-505.0,"y":-382.0},"guid":"d03fde33-4db7-4ac3-97b2-7772bf4026f1","$version":"A","$type":"Bolt.InvokeMember","$id":"92"},{"type":"UnityEngine.LayerMask","value":{"value":17408,"$type":"UnityEngine.LayerMask"},"defaultValues":{},"position":{"x":-723.0,"y":-143.0},"guid":"903c096f-b8f9-4c1e-a03e-de4e29f5f600","$version":"A","$type":"Bolt.Literal","$id":"95"},{"chainable":false,"member":{"name":"SetFloat","parameterTypes":["System.String","System.Single"],"targetType":"UnityEngine.Animator","targetTypeName":"UnityEngine.Animator","$version":"A"},"defaultValues":{"target":null,"%name":{"$content":"Velocity
      Z","$type":"System.String"},"%value":{"$content":0.0,"$type":"System.Single"}},"position":{"x":1529.0,"y":178.0},"guid":"ebc76ec8-c063-408a-b151-ecfacc3207d3","$version":"A","$type":"Bolt.InvokeMember","$id":"97"},{"specifyFallback":false,"kind":"Object","defaultValues":{"name":{"$content":"MoveSpeed","$type":"System.String"},"object":null},"position":{"x":2254.0,"y":-630.0},"guid":"a875e11e-2ddb-4e49-a5f9-32dfc230a9f4","$version":"A","$type":"Bolt.GetVariable","$id":"100"},{"chainable":false,"member":{"name":"CompareTag","parameterTypes":["System.String"],"targetType":"UnityEngine.GameObject","targetTypeName":"UnityEngine.GameObject","$version":"A"},"defaultValues":{"target":null,"%tag":{"$content":"Enemy","$type":"System.String"}},"position":{"x":178.0,"y":-373.0},"guid":"db01edcf-f6cb-4673-a27b-73cb660fdbe6","$version":"A","$type":"Bolt.InvokeMember","$id":"102"},{"chainable":false,"member":{"name":"SetBool","parameterTypes":["System.String","System.Boolean"],"targetType":"UnityEngine.Animator","targetTypeName":"UnityEngine.Animator","$version":"A"},"defaultValues":{"target":null,"%name":{"$content":"Moving","$type":"System.String"},"%value":{"$content":true,"$type":"System.Boolean"}},"position":{"x":3403.0,"y":-602.0},"guid":"950b246c-2624-4c7b-bde6-c2475760caa6","$version":"A","$type":"Bolt.InvokeMember","$id":"105"},{"coroutine":false,"defaultValues":{"button":{"$content":"Left","$type":"Ludiq.MouseButton"},"action":{"$content":"Down","$type":"Ludiq.PressState"}},"position":{"x":-1001.0,"y":-700.0},"guid":"d02ca3f8-b9e4-4370-ab1e-3ac06b46d0ae","$version":"A","$type":"Bolt.OnMouseInput","$id":"108"},{"chainable":false,"member":{"name":"Equals","parameterTypes":["System.Single"],"targetType":"System.Single","targetTypeName":"System.Single","$version":"A"},"defaultValues":{"target":{"$content":0.0,"$type":"System.Single"},"%obj":{"$content":0.0,"$type":"System.Single"}},"position":{"x":-1685.0,"y":-1272.0},"guid":"49cac60c-e8ad-4832-aea1-4c9234bf7a11","$version":"A","$type":"Bolt.InvokeMember","$id":"110"},{"chainable":false,"member":{"name":"SetBool","parameterTypes":["System.String","System.Boolean"],"targetType":"UnityEngine.Animator","targetTypeName":"UnityEngine.Animator","$version":"A"},"defaultValues":{"target":null,"%name":{"$content":"Sprint","$type":"System.String"},"%value":{"$content":true,"$type":"System.Boolean"}},"position":{"x":3164.0,"y":-804.0},"guid":"f8de9d8a-427e-4f37-b608-289909032e63","$version":"A","$type":"Bolt.InvokeMember","$id":"113"},{"chainable":false,"member":{"name":"SetFloat","parameterTypes":["System.String","System.Single"],"targetType":"UnityEngine.Animator","targetTypeName":"UnityEngine.Animator","$version":"A"},"defaultValues":{"target":null,"%name":{"$content":"RandomY","$type":"System.String"},"%value":{"$content":0.0,"$type":"System.Single"}},"position":{"x":1549.0,"y":-1270.0},"guid":"cb92aeae-a293-401e-8dc9-0969e153fdb6","$version":"A","$type":"Bolt.InvokeMember","$id":"116"},{"specifyFallback":false,"kind":"Object","defaultValues":{"name":{"$content":"StopDistance","$type":"System.String"},"object":null},"position":{"x":2036.0,"y":-367.0},"guid":"113dff77-5c9c-420b-bf92-fed97dac214c","$version":"A","$type":"Bolt.GetVariable","$id":"119"},{"type":"System.Single","value":{"$content":0.0,"$type":"System.Single"},"defaultValues":{},"position":{"x":2883.0,"y":-395.0},"guid":"a1a640fd-8b31-49ba-9bc9-9f5a77eac94d","$version":"A","$type":"Bolt.Literal","$id":"121"},{"chainable":false,"member":{"name":"SetFloat","parameterTypes":["System.String","System.Single"],"targetType":"UnityEngine.Animator","targetTypeName":"UnityEngine.Animator","$version":"A"},"defaultValues":{"target":null,"%name":{"$content":"RandomX","$type":"System.String"},"%value":{"$content":0.0,"$type":"System.Single"}},"position":{"x":1195.0,"y":-1278.0},"guid":"a0a08efa-7351-4281-9e18-abd3eca94f0a","$version":"A","$type":"Bolt.InvokeMember","$id":"123"},{"defaultValues":{"seconds":{"$content":0.0,"$type":"System.Single"},"unscaledTime":{"$content":false,"$type":"System.Boolean"}},"position":{"x":521.0,"y":-1292.0},"guid":"acccd798-8d35-451b-9932-d92b2a400489","$version":"A","$type":"Bolt.WaitForSecondsUnit","$id":"126"},{"chainable":false,"member":{"name":"SetBool","parameterTypes":["System.String","System.Boolean"],"targetType":"UnityEngine.Animator","targetTypeName":"UnityEngine.Animator","$version":"A"},"defaultValues":{"target":null,"%name":{"$content":"Moving","$type":"System.String"},"%value":{"$content":true,"$type":"System.Boolean"}},"position":{"x":2979.0,"y":-806.0},"guid":"2590c504-7166-4ea2-a870-0815a9978610","$version":"A","$type":"Bolt.InvokeMember","$id":"128"},{"type":"System.Single","value":{"$content":1.0,"$type":"System.Single"},"defaultValues":{},"position":{"x":2286.0,"y":-451.0},"guid":"ac0d8083-418d-4fa0-84de-8bf39d41d3a2","$version":"A","$type":"Bolt.Literal","$id":"131"},{"chainable":false,"member":{"name":"SetDestination","parameterTypes":["UnityEngine.Vector3"],"targetType":"UnityEngine.AI.NavMeshAgent","targetTypeName":"UnityEngine.AI.NavMeshAgent","$version":"A"},"defaultValues":{"target":null,"%target":{"x":0.0,"y":0.0,"z":0.0,"$type":"UnityEngine.Vector3"}},"position":{"x":799.0,"y":-193.0},"guid":"824c22c7-fa74-4350-aa28-25e3b980e265","$version":"A","$type":"Bolt.InvokeMember","$id":"133"},{"member":{"name":"velocity","parameterTypes":null,"targetType":"UnityEngine.AI.NavMeshAgent","targetTypeName":"UnityEngine.AI.NavMeshAgent","$version":"A"},"defaultValues":{"target":null},"position":{"x":1094.0,"y":269.0},"guid":"3076a49f-81a3-4439-a040-e605f5d4751f","$version":"A","$type":"Bolt.GetMember","$id":"136"},{"chainable":false,"member":{"name":"speed","parameterTypes":null,"targetType":"UnityEngine.AI.NavMeshAgent","targetTypeName":"UnityEngine.AI.NavMeshAgent","$version":"A"},"defaultValues":{"target":null,"input":{"$content":0.0,"$type":"System.Single"}},"position":{"x":2783.0,"y":-673.0},"guid":"34ee9113-8e53-4957-8d31-874666948e52","$version":"A","$type":"Bolt.SetMember","$id":"139"},{"chainable":false,"member":{"name":"SetFloat","parameterTypes":["System.String","System.Single"],"targetType":"UnityEngine.Animator","targetTypeName":"UnityEngine.Animator","$version":"A"},"defaultValues":{"target":null,"%name":{"$content":"Velocity
      X","$type":"System.String"},"%value":{"$content":0.0,"$type":"System.Single"}},"position":{"x":1923.0,"y":255.0},"guid":"b655e89b-feb9-46fd-bb9e-d3d036971837","$version":"A","$type":"Bolt.InvokeMember","$id":"142"},{"specifyFallback":false,"kind":"Object","defaultValues":{"name":{"$content":"RandomY","$type":"System.String"},"object":null},"position":{"x":830.0,"y":-1012.0},"guid":"cfc87b65-2768-41d2-9920-be819dc00d3f","$version":"A","$type":"Bolt.GetVariable","$id":"145"},{"chainable":false,"member":{"name":"speed","parameterTypes":null,"targetType":"UnityEngine.AI.NavMeshAgent","targetTypeName":"UnityEngine.AI.NavMeshAgent","$version":"A"},"defaultValues":{"target":null,"input":{"$content":0.0,"$type":"System.Single"}},"position":{"x":3200.0,"y":-422.0},"guid":"69bdb178-9a6f-4b89-bcfb-a59b5bdf41aa","$version":"A","$type":"Bolt.SetMember","$id":"147"},{"coroutine":false,"defaultValues":{},"position":{"x":1936.0,"y":-950.0},"guid":"8d82cde3-8007-4621-88b6-74eed7a497d8","$version":"A","$type":"Bolt.LateUpdate","$id":"150"},{"type":"UnityEngine.Vector3","instance":true,"static":false,"defaultValues":{"target":{"x":0.0,"y":0.0,"z":0.0,"$type":"UnityEngine.Vector3"}},"position":{"x":1778.0,"y":429.0},"guid":"067fe79f-69ae-4279-a58d-e5158d6c808b","$version":"A","$type":"Bolt.Expose","$id":"152"},{"member":{"name":"forward","parameterTypes":null,"targetType":"UnityEngine.Transform","targetTypeName":"UnityEngine.Transform","$version":"A"},"defaultValues":{"target":null},"position":{"x":1346.0,"y":607.0},"guid":"6d133e9f-d3e2-4f95-be76-689b69241efe","$version":"A","$type":"Bolt.GetMember","$id":"154"},{"type":"UnityEngine.Vector3","instance":true,"static":false,"defaultValues":{"target":{"x":0.0,"y":0.0,"z":0.0,"$type":"UnityEngine.Vector3"}},"position":{"x":1332.0,"y":365.0},"guid":"cade6b24-70d7-4c3b-8967-8ce2ed330a58","$version":"A","$type":"Bolt.Expose","$id":"157"},{"member":{"name":"point","parameterTypes":null,"targetType":"UnityEngine.RaycastHit","targetTypeName":"UnityEngine.RaycastHit","$version":"A"},"defaultValues":{},"position":{"x":611.0,"y":-172.0},"guid":"ebfd0ece-fdee-482f-a5e9-297790b40157","$version":"A","$type":"Bolt.GetMember","$id":"159"},{"defaultValues":{},"position":{"x":-1444.0,"y":-1122.0},"guid":"d7937a8d-8ab5-46c6-968a-437aa121f78f","$version":"A","$type":"Bolt.And","$id":"162"},{"kind":"Application","defaultValues":{"name":{"$content":"Player","$type":"System.String"}},"position":{"x":-340.0,"y":-1101.0},"guid":"e044c315-803f-4102-b4f2-92d5ab3ccdb7","$version":"A","$type":"Bolt.SetVariable","$id":"164"},{"chainable":false,"member":{"name":"GetAxisRaw","parameterTypes":["System.String"],"targetType":"UnityEngine.Input","targetTypeName":"UnityEngine.Input","$version":"A"},"defaultValues":{"%axisName":{"$content":"Vertical","$type":"System.String"}},"position":{"x":-1933.0,"y":-1069.0},"guid":"e9eec832-0c0a-4e1d-a96d-334fe706df8d","$version":"A","$type":"Bolt.InvokeMember","$id":"166"},{"defaultValues":{"a":{"$content":0.0,"$type":"System.Single"},"b":{"$content":1.0,"$type":"System.Single"},"t":{"$content":1.0,"$type":"System.Single"}},"position":{"x":1062.0,"y":-1171.0},"guid":"9c66b44e-5629-47b1-b09d-64d0a97f5f27","$version":"A","$type":"Bolt.ScalarLerp","$id":"169"},{"chainable":false,"member":{"name":"Range","parameterTypes":["System.Int32","System.Int32"],"targetType":"UnityEngine.Random","targetTypeName":"UnityEngine.Random","$version":"A"},"defaultValues":{"%minInclusive":{"$content":0,"$type":"System.Int32"},"%maxExclusive":{"$content":0,"$type":"System.Int32"}},"position":{"x":868.0,"y":-1188.0},"guid":"48b70e6d-a764-465b-a788-d176bd888c1b","$version":"A","$type":"Bolt.InvokeMember","$id":"171"},{"defaultValues":{"a":{"$content":0.0,"$type":"System.Single"},"b":{"$content":1.0,"$type":"System.Single"},"t":{"$content":0.03,"$type":"System.Single"}},"position":{"x":2609.0,"y":-878.0},"guid":"a96b4f8c-8923-4693-a005-4580035dacaa","$version":"A","$type":"Bolt.ScalarLerp","$id":"174"},{"sourceUnit":{"$ref":"92"},"sourceKey":"exit","destinationUnit":{"$ref":"11"},"destinationKey":"enter","guid":"436da3fa-52f7-4447-b57a-92bfac5f7528","$type":"Bolt.ControlConnection"},{"sourceUnit":{"$ref":"128"},"sourceKey":"exit","destinationUnit":{"$ref":"113"},"destinationKey":"enter","guid":"4179d10b-830b-4892-9b42-40301067599f","$type":"Bolt.ControlConnection"},{"sourceUnit":{"$ref":"42"},"sourceKey":"exit","destinationUnit":{"$ref":"171"},"destinationKey":"enter","guid":"2f412f71-5be5-4613-88a4-53ff8af94f35","$type":"Bolt.ControlConnection"},{"sourceUnit":{"$ref":"60"},"sourceKey":"ifTrue","destinationUnit":{"$ref":"147"},"destinationKey":"assign","guid":"54c2d7fd-a4e4-4878-a6af-cb1e1240e48c","$type":"Bolt.ControlConnection"},{"sourceUnit":{"$ref":"150"},"sourceKey":"trigger","destinationUnit":{"$ref":"15"},"destinationKey":"enter","guid":"9875f403-246a-4b76-a4ad-139e444f068a","$type":"Bolt.ControlConnection"},{"sourceUnit":{"$ref":"171"},"sourceKey":"exit","destinationUnit":{"$ref":"123"},"destinationKey":"enter","guid":"7fe0e661-1711-4d39-a9d2-7ac995e9a04e","$type":"Bolt.ControlConnection"},{"sourceUnit":{"$ref":"15"},"sourceKey":"ifTrue","destinationUnit":{"$ref":"85"},"destinationKey":"assign","guid":"48f2469d-910b-4545-ac8a-518e50494d86","$type":"Bolt.ControlConnection"},{"sourceUnit":{"$ref":"108"},"sourceKey":"trigger","destinationUnit":{"$ref":"92"},"destinationKey":"enter","guid":"d25cbdb6-5af8-4903-96a4-be4d1398f610","$type":"Bolt.ControlConnection"},{"sourceUnit":{"$ref":"126"},"sourceKey":"exit","destinationUnit":{"$ref":"42"},"destinationKey":"enter","guid":"515dc80d-6869-46fb-bd32-da3d630adc0f","$type":"Bolt.ControlConnection"},{"sourceUnit":{"$ref":"11"},"sourceKey":"ifTrue","destinationUnit":{"$ref":"40"},"destinationKey":"enter","guid":"409e300e-9c88-4578-8756-03cc613fff19","$type":"Bolt.ControlConnection"},{"sourceUnit":{"$ref":"15"},"sourceKey":"ifFalse","destinationUnit":{"$ref":"139"},"destinationKey":"assign","guid":"265719fd-caaf-43fc-88b0-2bbe0f8aea3f","$type":"Bolt.ControlConnection"},{"sourceUnit":{"$ref":"60"},"sourceKey":"ifFalse","destinationUnit":{"$ref":"105"},"destinationKey":"enter","guid":"ee3d2955-9e17-4986-a138-6bdfa2d21f76","$type":"Bolt.ControlConnection"},{"sourceUnit":{"$ref":"40"},"sourceKey":"ifFalse","destinationUnit":{"$ref":"133"},"destinationKey":"enter","guid":"62f32593-0a5a-4da6-9b8e-8bd950ba3e23","$type":"Bolt.ControlConnection"},{"sourceUnit":{"$ref":"142"},"sourceKey":"exit","destinationUnit":{"$ref":"25"},"destinationKey":"enter","guid":"4bfd051f-576a-47ab-b82a-b5407be4cef4","$type":"Bolt.ControlConnection"},{"sourceUnit":{"$ref":"97"},"sourceKey":"exit","destinationUnit":{"$ref":"142"},"destinationKey":"enter","guid":"104215d8-56ca-4693-ae76-d14620878bc3","$type":"Bolt.ControlConnection"},{"sourceUnit":{"$ref":"9"},"sourceKey":"trigger","destinationUnit":{"$ref":"164"},"destinationKey":"assign","guid":"240767bb-f62b-4967-beaa-d7bde6295d66","$type":"Bolt.ControlConnection"},{"sourceUnit":{"$ref":"13"},"sourceKey":"trigger","destinationUnit":{"$ref":"97"},"destinationKey":"enter","guid":"bfefa711-6583-468a-8b90-44003ddda0ef","$type":"Bolt.ControlConnection"},{"sourceUnit":{"$ref":"123"},"sourceKey":"exit","destinationUnit":{"$ref":"116"},"destinationKey":"enter","guid":"3d7086c2-a872-4de8-b098-1f5abb401275","$type":"Bolt.ControlConnection"},{"sourceUnit":{"$ref":"53"},"sourceKey":"exit","destinationUnit":{"$ref":"126"},"destinationKey":"enter","guid":"b30ff060-6540-48c3-8908-255f12128c62","$type":"Bolt.ControlConnection"},{"sourceUnit":{"$ref":"147"},"sourceKey":"assigned","destinationUnit":{"$ref":"50"},"destinationKey":"enter","guid":"521d1854-4d45-4189-906a-bb9475b75fba","$type":"Bolt.ControlConnection"},{"sourceUnit":{"$ref":"85"},"sourceKey":"assigned","destinationUnit":{"$ref":"128"},"destinationKey":"enter","guid":"9b5df468-3559-48fb-98a0-dfdcaf0ae846","$type":"Bolt.ControlConnection"},{"sourceUnit":{"$ref":"139"},"sourceKey":"assigned","destinationUnit":{"$ref":"60"},"destinationKey":"enter","guid":"b6627fc9-a40a-4a17-8d3d-b17311ff1f5d","$type":"Bolt.ControlConnection"},{"sourceUnit":{"$ref":"88"},"sourceKey":"crossProduct","destinationUnit":{"$ref":"152"},"destinationKey":"target","guid":"2e46d772-e1fc-41e4-8dd1-14ea0ca151a9","$type":"Bolt.ValueConnection"},{"sourceUnit":{"$ref":"79"},"sourceKey":"value","destinationUnit":{"$ref":"77"},"destinationKey":"a","guid":"90663631-2533-41d3-9b72-e5eb85f3af70","$type":"Bolt.ValueConnection"},{"sourceUnit":{"$ref":"100"},"sourceKey":"value","destinationUnit":{"$ref":"70"},"destinationKey":"b","guid":"e728d518-042f-41d1-850f-7a206f6b1724","$type":"Bolt.ValueConnection"},{"sourceUnit":{"$ref":"38"},"sourceKey":"output","destinationUnit":{"$ref":"70"},"destinationKey":"a","guid":"e0776f33-8ac5-483c-8af3-35edacd2c7a2","$type":"Bolt.ValueConnection"},{"sourceUnit":{"$ref":"36"},"sourceKey":"value","destinationUnit":{"$ref":"48"},"destinationKey":"a","guid":"522ad570-148e-4d21-8374-4dd8100b1998","$type":"Bolt.ValueConnection"},{"sourceUnit":{"$ref":"82"},"sourceKey":"value","destinationUnit":{"$ref":"174"},"destinationKey":"a","guid":"b63b1775-e71f-4f43-8b42-f1d62773ba4b","$type":"Bolt.ValueConnection"},{"sourceUnit":{"$ref":"72"},"sourceKey":"interpolation","destinationUnit":{"$ref":"147"},"destinationKey":"input","guid":"ccb2feb6-fe44-42c6-a593-794239a11a7d","$type":"Bolt.ValueConnection"},{"sourceUnit":{"$ref":"56"},"sourceKey":"product","destinationUnit":{"$ref":"90"},"destinationKey":"b","guid":"540329f3-b2e0-422e-8b71-f2ee953463ca","$type":"Bolt.ValueConnection"},{"sourceUnit":{"$ref":"145"},"sourceKey":"value","destinationUnit":{"$ref":"169"},"destinationKey":"a","guid":"541e022c-9aa5-440e-80dd-bcfa30d89b0c","$type":"Bolt.ValueConnection"},{"sourceUnit":{"$ref":"17"},"sourceKey":"value","destinationUnit":{"$ref":"30"},"destinationKey":"%pos","guid":"9d9f2254-4ddc-41f0-9fc2-7d4807c66fde","$type":"Bolt.ValueConnection"},{"sourceUnit":{"$ref":"121"},"sourceKey":"output","destinationUnit":{"$ref":"72"},"destinationKey":"b","guid":"98d066d6-f020-4114-870f-ffe7d16e1237","$type":"Bolt.ValueConnection"},{"sourceUnit":{"$ref":"131"},"sourceKey":"output","destinationUnit":{"$ref":"56"},"destinationKey":"a","guid":"b623426d-6f15-451e-9bd9-e851a01ad35a","$type":"Bolt.ValueConnection"},{"sourceUnit":{"$ref":"100"},"sourceKey":"value","destinationUnit":{"$ref":"56"},"destinationKey":"b","guid":"938f900e-5fd6-4908-9a27-3cbaf5332f9d","$type":"Bolt.ValueConnection"},{"sourceUnit":{"$ref":"157"},"sourceKey":"normalized","destinationUnit":{"$ref":"88"},"destinationKey":"a","guid":"54847099-49b7-45d2-9c94-6be941514c77","$type":"Bolt.ValueConnection"},{"sourceUnit":{"$ref":"136"},"sourceKey":"value","destinationUnit":{"$ref":"157"},"destinationKey":"target","guid":"3bf5a024-5e83-4b20-8c06-fc15f7773c17","$type":"Bolt.ValueConnection"},{"sourceUnit":{"$ref":"171"},"sourceKey":"result","destinationUnit":{"$ref":"169"},"destinationKey":"b","guid":"12012d2c-d341-4ae4-b49e-98e2efec25a6","$type":"Bolt.ValueConnection"},{"sourceUnit":{"$ref":"136"},"sourceKey":"value","destinationUnit":{"$ref":"33"},"destinationKey":"%vector","guid":"14c591e3-64df-417a-b72b-2a338169ac24","$type":"Bolt.ValueConnection"},{"sourceUnit":{"$ref":"92"},"sourceKey":"&hitInfo","destinationUnit":{"$ref":"74"},"destinationKey":"target","guid":"3194a921-6f46-45aa-a24c-064bf340ee6e","$type":"Bolt.ValueConnection"},{"sourceUnit":{"$ref":"154"},"sourceKey":"value","destinationUnit":{"$ref":"88"},"destinationKey":"b","guid":"3dd00836-69bd-4464-ad8c-a0622de33ff7","$type":"Bolt.ValueConnection"},{"sourceUnit":{"$ref":"162"},"sourceKey":"result","destinationUnit":{"$ref":"65"},"destinationKey":"input","guid":"daffc3d4-7558-4f4a-9490-39f0684cf883","$type":"Bolt.ValueConnection"},{"sourceUnit":{"$ref":"67"},"sourceKey":"result","destinationUnit":{"$ref":"110"},"destinationKey":"%obj","guid":"be01bda9-4da9-4c11-9802-f64e191dac13","$type":"Bolt.ValueConnection"},{"sourceUnit":{"$ref":"22"},"sourceKey":"result","destinationUnit":{"$ref":"162"},"destinationKey":"b","guid":"7f11a558-5033-45b4-8423-36d08ddedc68","$type":"Bolt.ValueConnection"},{"sourceUnit":{"$ref":"82"},"sourceKey":"value","destinationUnit":{"$ref":"90"},"destinationKey":"a","guid":"64138d64-c45c-41da-84ea-cd62bf5faba5","$type":"Bolt.ValueConnection"},{"sourceUnit":{"$ref":"90"},"sourceKey":"interpolation","destinationUnit":{"$ref":"139"},"destinationKey":"input","guid":"d1d4c421-e4b5-4afe-a01b-7b221e486c85","$type":"Bolt.ValueConnection"},{"sourceUnit":{"$ref":"30"},"sourceKey":"result","destinationUnit":{"$ref":"92"},"destinationKey":"%ray","guid":"167100b3-7c1e-4b42-b7bb-db918de2e607","$type":"Bolt.ValueConnection"},{"sourceUnit":{"$ref":"48"},"sourceKey":"interpolation","destinationUnit":{"$ref":"123"},"destinationKey":"%value","guid":"11615062-4510-4113-b7ae-50b3ac2e0be6","$type":"Bolt.ValueConnection"},{"sourceUnit":{"$ref":"33"},"sourceKey":"result","destinationUnit":{"$ref":"97"},"destinationKey":"%value","guid":"fd00eaae-ac69-4f4d-bf74-446e3ddb6ee3","$type":"Bolt.ValueConnection"},{"sourceUnit":{"$ref":"20"},"sourceKey":"value","destinationUnit":{"$ref":"77"},"destinationKey":"b","guid":"a9ae6080-6014-4231-9d35-c2b710f6b524","$type":"Bolt.ValueConnection"},{"sourceUnit":{"$ref":"70"},"sourceKey":"product","destinationUnit":{"$ref":"174"},"destinationKey":"b","guid":"53331f08-1b8f-4d7c-a506-b30b467c98a3","$type":"Bolt.ValueConnection"},{"sourceUnit":{"$ref":"166"},"sourceKey":"result","destinationUnit":{"$ref":"22"},"destinationKey":"%obj","guid":"dcdbe8c3-2650-450b-b5c5-84fd6d1afb9d","$type":"Bolt.ValueConnection"},{"sourceUnit":{"$ref":"58"},"sourceKey":"self","destinationUnit":{"$ref":"164"},"destinationKey":"input","guid":"5dc3a835-87e4-44c5-ab21-373b221485fa","$type":"Bolt.ValueConnection"},{"sourceUnit":{"$ref":"110"},"sourceKey":"result","destinationUnit":{"$ref":"162"},"destinationKey":"a","guid":"28ced745-2093-4677-8863-c2c1ca85270f","$type":"Bolt.ValueConnection"},{"sourceUnit":{"$ref":"169"},"sourceKey":"interpolation","destinationUnit":{"$ref":"116"},"destinationKey":"%value","guid":"12cc4a05-2dcd-4b84-a916-4a616dbe9eae","$type":"Bolt.ValueConnection"},{"sourceUnit":{"$ref":"53"},"sourceKey":"result","destinationUnit":{"$ref":"126"},"destinationKey":"seconds","guid":"bcd6a64a-2b4a-4341-a4b1-678abb725668","$type":"Bolt.ValueConnection"},{"sourceUnit":{"$ref":"92"},"sourceKey":"&hitInfo","destinationUnit":{"$ref":"159"},"destinationKey":"target","guid":"e68f2073-fd7c-4c28-b566-d3c1d777f8f5","$type":"Bolt.ValueConnection"},{"sourceUnit":{"$ref":"119"},"sourceKey":"value","destinationUnit":{"$ref":"28"},"destinationKey":"b","guid":"e094477a-f338-46c3-bbe2-4b026134261c","$type":"Bolt.ValueConnection"},{"sourceUnit":{"$ref":"157"},"sourceKey":"x","destinationUnit":{"$ref":"142"},"destinationKey":"%value","guid":"039dd67f-e0c0-4a55-9129-9751ac478dee","$type":"Bolt.ValueConnection"},{"sourceUnit":{"$ref":"42"},"sourceKey":"result","destinationUnit":{"$ref":"48"},"destinationKey":"b","guid":"6d522cc5-40e9-44c6-a9c8-65f395b7ccea","$type":"Bolt.ValueConnection"},{"sourceUnit":{"$ref":"92"},"sourceKey":"result","destinationUnit":{"$ref":"11"},"destinationKey":"condition","guid":"e754ca90-000c-4cba-8759-82fc6cf8d460","$type":"Bolt.ValueConnection"},{"sourceUnit":{"$ref":"79"},"sourceKey":"value","destinationUnit":{"$ref":"28"},"destinationKey":"a","guid":"1fe4f3f5-51ea-484c-a21e-136c0d97ec44","$type":"Bolt.ValueConnection"},{"sourceUnit":{"$ref":"152"},"sourceKey":"y","destinationUnit":{"$ref":"25"},"destinationKey":"%value","guid":"55a0713b-83c1-4ee4-9255-6214f11363ef","$type":"Bolt.ValueConnection"},{"sourceUnit":{"$ref":"74"},"sourceKey":"value","destinationUnit":{"$ref":"102"},"destinationKey":"target","guid":"c7fcc4ee-7661-4927-8186-b8e76455be12","$type":"Bolt.ValueConnection"},{"sourceUnit":{"$ref":"102"},"sourceKey":"result","destinationUnit":{"$ref":"40"},"destinationKey":"condition","guid":"03e43942-c709-42cd-9a27-98a5556ba804","$type":"Bolt.ValueConnection"},{"sourceUnit":{"$ref":"28"},"sourceKey":"comparison","destinationUnit":{"$ref":"60"},"destinationKey":"condition","guid":"783c2c9f-137d-43e4-95eb-db3fcc1380ea","$type":"Bolt.ValueConnection"},{"sourceUnit":{"$ref":"159"},"sourceKey":"value","destinationUnit":{"$ref":"133"},"destinationKey":"%target","guid":"f132d3d1-9f7f-4072-af76-e8ae56b5c1ca","$type":"Bolt.ValueConnection"},{"sourceUnit":{"$ref":"82"},"sourceKey":"value","destinationUnit":{"$ref":"72"},"destinationKey":"a","guid":"242067a6-1324-4a5c-827d-bd98bf0558e3","$type":"Bolt.ValueConnection"},{"sourceUnit":{"$ref":"174"},"sourceKey":"interpolation","destinationUnit":{"$ref":"85"},"destinationKey":"input","guid":"9d57402f-acd8-43e9-9078-cd87239a0ba0","$type":"Bolt.ValueConnection"},{"sourceUnit":{"$ref":"45"},"sourceKey":"value","destinationUnit":{"$ref":"30"},"destinationKey":"target","guid":"cd07405c-742f-4aa4-8611-ae8eff21c1d8","$type":"Bolt.ValueConnection"},{"sourceUnit":{"$ref":"95"},"sourceKey":"output","destinationUnit":{"$ref":"92"},"destinationKey":"%layerMask","guid":"6cfe4210-6a81-4893-ae47-b2f37d585f16","$type":"Bolt.ValueConnection"},{"sourceUnit":{"$ref":"77"},"sourceKey":"comparison","destinationUnit":{"$ref":"15"},"destinationKey":"condition","guid":"22244167-4e22-4657-ac6e-dfd6561ed315","$type":"Bolt.ValueConnection"},{"position":{"xMin":-1090.0,"yMin":-761.0,"xMax":-91.0,"yMax":-1.0},"label":"Check
      if we clicked to move or to fire (holding Ctrl)","comment":null,"color":{"r":0.0,"g":0.0,"b":0.0,"a":1.0},"guid":"3993d21b-3711-40ba-ac59-4c19f7c83d47","$version":"A","$type":"Ludiq.GraphGroup"},{"position":{"xMin":-37.0,"yMin":-500.0,"xMax":522.0,"yMax":-218.0},"label":"Check
      if we clicked a on an enemy","comment":null,"color":{"r":0.0,"g":0.0,"b":0.0,"a":1.0},"guid":"965005d4-27c7-432a-9d2d-61316fe16c0c","$version":"A","$type":"Ludiq.GraphGroup"},{"position":{"xMin":-563.0,"yMin":-1151.0,"xMax":-150.0,"yMax":-882.0},"label":"Player
      Singleton Variable","comment":null,"color":{"r":0.0,"g":0.0,"b":0.0,"a":1.0},"guid":"a036a728-faab-46d1-8cd0-8e7b590f3f31","$version":"A","$type":"Ludiq.GraphGroup"},{"position":{"xMin":-1062.0,"yMin":-458.0,"xMax":-104.0,"yMax":-24.0},"label":"Clicked
      to move, find the target under the mouse","comment":null,"color":{"r":0.0,"g":0.0,"b":0.0,"a":1.0},"guid":"618e0821-aedb-4a80-aa65-d1380048dee7","$version":"A","$type":"Ludiq.GraphGroup"},{"position":{"xMin":1046.0,"yMin":67.0,"xMax":1694.0,"yMax":387.0},"label":"Pass
      the speed to the animator","comment":null,"color":{"r":0.0,"g":0.0,"b":0.0,"a":1.0},"guid":"39ef00c2-6a98-40a3-812f-90d8ec37ad20","$version":"A","$type":"Ludiq.GraphGroup"},{"position":{"xMin":-2050.0,"yMin":-1354.0,"xMax":-1110.0,"yMax":-916.0},"label":"ACTIVE","comment":null,"color":{"r":0.0,"g":0.0,"b":0.0,"a":1.0},"guid":"3c9836c3-daa4-48b8-ab42-a5baced4c058","$version":"A","$type":"Ludiq.GraphGroup"},{"position":{"xMin":576.0,"yMin":-259.0,"xMax":1014.0,"yMax":-21.0},"label":"If
      not, move to destination","comment":null,"color":{"r":0.0,"g":0.0,"b":0.0,"a":1.0},"guid":"6b8b2d89-10ae-467c-baec-ac88b9d1dd97","$version":"A","$type":"Ludiq.GraphGroup"},{"position":{"xMin":312.0,"yMin":-1417.0,"xMax":1481.0,"yMax":-889.0},"label":"Random
      Idle","comment":null,"color":{"r":0.0,"g":0.0,"b":0.0,"a":1.0},"guid":"d8af29d9-d63e-4045-8e8d-5a5e41fcb238","$version":"A","$type":"Ludiq.GraphGroup"},{"position":{"xMin":1587.0,"yMin":-988.0,"xMax":3854.0,"yMax":-99.0},"label":"Regulate
      the speed of the Nav Mesh Agent","comment":null,"color":{"r":0.0,"g":0.0,"b":0.0,"a":1.0},"guid":"9db228f5-c3fd-423e-abe8-154029cbaebb","$version":"A","$type":"Ludiq.GraphGroup"}],"$version":"A"}}'
    _objectReferences: []
